digraph G {
  graph [ rankdir="LR" ];
  "lalr_state0" [
    label="<f0> State 0 | <f1> S' -\>  . V $  , \{$ \} | <f2> V -\>  . V : a  , \{$ : \}  | <f3> V -\>  &#949;.  , \{$ : \} | <f4> V -\>  . a  , \{$ : \}"
    shape="record"
  ];
  
  
  "lalr_state1" [
    label="<f0> State 1 | <f1> V -\> a  .  , \{$ : \}"
    shape="record"
  ];
  
  "lalr_state2" [
    label="<f0> State 2 | <f1> V -\> V  . : a  , \{$ : \} | <f2> S' -\> V  . $  , \{$ \}"
    shape="record"
  ];
  
  
  "lalr_state3" [
    label="<f0> State 3 | <f1> V -\> V :  . a  , \{$ : \}"
    shape="record"
  ];
  
  "lalr_state4" [
    label="<f0> State 4 | <f1> S' -\> V $  .  , \{$ \}"
    shape="record"
  ];
  
  "lalr_state5" [
    label="<f0> State 5 | <f1> V -\> V : a  .  , \{$ : \}"
    shape="record"
  ];
  
  "lalr_state0":f0 -> "lalr_state2":f0 [ label="V" ];
  "lalr_state0":f0 -> "lalr_state1":f0 [ label="a" ];
  
  "lalr_state2":f0 -> "lalr_state4":f0 [ label="$" ];
  "lalr_state2":f0 -> "lalr_state3":f0 [ label=":" ];
  
  "lalr_state3":f0 -> "lalr_state5":f0 [ label="a" ];
}
