digraph G {
  graph [
  rankdir = "LR"
  ];

"lalr_state0" [
  label="<f0> S ::= . S S @ , \{$ a \} | <f1> S' ::= . S $ , \{$ \} | <f2> S ::= . a , \{$ a \} | <f3> S ::= . S S  ^  , \{$ a \}"
  shape="record"
];

"lalr_state1" [
  label= "<f0> S -\> a . , \{$ ^ a @ \}"
  shape="record"
];


"lalr_state2" [
  label= "<f0> S -\> S . S @ , \{$ a \} | <f1> S -\> . S S @ , \{^ a @ \} |  <f2> S' -\> S . $ , \{$ \} |  <f3> S -\> . a , \{^ a @ \} | <f4> S -\> S . S ^ , \{$ a \} | <f5> S -\> . S S ^ , \{^ a @ \}"
  shape="record"
];

"lalr_state3" [
  label="<f0> S -\> S S . @ , \{$ ^ a @ \} | <f1> S -\> S . S @ , \{^ a @ \} | <f2> S -\> . S S @ , \{^ a @ \} | <f3> S -\> S S . ^ , \{$ ^ a @ \} | <f4> S -\> . a , \{^ a @ \} | <f5> S -\> S . S ^ , \{^ a @ \} | <f6> S -\> . S S ^ , \{^ a @ \}"
  shape="record"
];

"lalr_state4" [
  label="<f0> S' -\> S $ . , \{$\}"
  shape="record"
];

"lalr_state5" [
  label="<f0> S -\> S S @ . , \{$ ^ a @ \}"
  shape="record"
];

"lalr_state6" [
  label="<f0> S -\> S S ^ . , \{$ ^ a @ \}"
  shape="record"
];

"lalr_state0":f0 -> "lalr_state2":f0 [ label="S"];
"lalr_state0":f0 -> "lalr_state1":f0 [ label="a"];

"lalr_state2":f0 -> "lalr_state4":f0 [ label="$"];
"lalr_state2":f0 -> "lalr_state3":f0 [ label="S"];
"lalr_state2":f0 -> "lalr_state1":f0 [ label="a"];

"lalr_state3":f0 -> "lalr_state6":f0 [ label="^"];
"lalr_state3":f0 -> "lalr_state3":f0 [ label="S"];
"lalr_state3":f0 -> "lalr_state5":f0 [ label="@"];
"lalr_state3":f0 -> "lalr_state1":f0 [ label="a"];

}



/*
lalr_state [1]: {
  [S -\> a (*) , {$ ^ a @ }]
}
//DONE WITH THAT ONE

-------------------
lalr_state [2]: {
  [S -\> S (*) S @ , {$ a }]
  [S -\> (*) S S @ , {^ a @ }]
  [$START -\> S (*) $ , {$ }]
  [S -\> (*) a , {^ a @ }]
  [S -\> S (*) S ^ , {$ a }]
  [S -\> (*) S S ^ , {^ a @ }]
}
transition on $ to state [4]
transition on S to state [3]
transition on a to state [1]

-------------------
lalr_state [3]: {
  [S -\> S S (*) @ , {$ ^ a @ }]
  [S -\> S (*) S @ , {^ a @ }]
  [S -\> (*) S S @ , {^ a @ }]
  [S -\> S S (*) ^ , {$ ^ a @ }]
  [S -\> (*) a , {^ a @ }]
  [S -\> S (*) S ^ , {^ a @ }]
  [S -\> (*) S S ^ , {^ a @ }]
}
transition on ^ to state [6]
transition on S to state [3]
transition on @ to state [5]
transition on a to state [1]

-------------------
lalr_state [4]: {
  [$START -\> S $ (*) , {$ }]
}

-------------------
lalr_state [5]: {
  [S -\> S S @ (*) , {$ ^ a @ }]
}

-------------------
lalr_state [6]: {
  [S -\> S S ^ (*) , {$ ^ a @ }]
}
*/

