%!PS-Adobe-3.0 EPSF-3.0
%%Creator: Graphviz version 2.20.3 (Sun Jul 26 04:59:59 UTC 2009)
%%For: (kelley)  kyle kelley
%%Title: G
%%Pages: 1
%%BoundingBox: 36 36 948 382
%%EndComments
save
%%BeginProlog
/DotDict 200 dict def
DotDict begin

/setupLatin1 {
mark
/EncodingVector 256 array def
 EncodingVector 0

ISOLatin1Encoding 0 255 getinterval putinterval
EncodingVector 45 /hyphen put

% Set up ISO Latin 1 character encoding
/starnetISO {
        dup dup findfont dup length dict begin
        { 1 index /FID ne { def }{ pop pop } ifelse
        } forall
        /Encoding EncodingVector def
        currentdict end definefont
} def
/Times-Roman starnetISO def
/Times-Italic starnetISO def
/Times-Bold starnetISO def
/Times-BoldItalic starnetISO def
/Helvetica starnetISO def
/Helvetica-Oblique starnetISO def
/Helvetica-Bold starnetISO def
/Helvetica-BoldOblique starnetISO def
/Courier starnetISO def
/Courier-Oblique starnetISO def
/Courier-Bold starnetISO def
/Courier-BoldOblique starnetISO def
cleartomark
} bind def

%%BeginResource: procset graphviz 0 0
/coord-font-family /Times-Roman def
/default-font-family /Times-Roman def
/coordfont coord-font-family findfont 8 scalefont def

/InvScaleFactor 1.0 def
/set_scale {
       dup 1 exch div /InvScaleFactor exch def
       scale
} bind def

% styles
/solid { [] 0 setdash } bind def
/dashed { [9 InvScaleFactor mul dup ] 0 setdash } bind def
/dotted { [1 InvScaleFactor mul 6 InvScaleFactor mul] 0 setdash } bind def
/invis {/fill {newpath} def /stroke {newpath} def /show {pop newpath} def} bind def
/bold { 2 setlinewidth } bind def
/filled { } bind def
/unfilled { } bind def
/rounded { } bind def
/diagonals { } bind def

% hooks for setting color 
/nodecolor { sethsbcolor } bind def
/edgecolor { sethsbcolor } bind def
/graphcolor { sethsbcolor } bind def
/nopcolor {pop pop pop} bind def

/beginpage {	% i j npages
	/npages exch def
	/j exch def
	/i exch def
	/str 10 string def
	npages 1 gt {
		gsave
			coordfont setfont
			0 0 moveto
			(\() show i str cvs show (,) show j str cvs show (\)) show
		grestore
	} if
} bind def

/set_font {
	findfont exch
	scalefont setfont
} def

% draw text fitted to its expected width
/alignedtext {			% width text
	/text exch def
	/width exch def
	gsave
		width 0 gt {
			[] 0 setdash
			text stringwidth pop width exch sub text length div 0 text ashow
		} if
	grestore
} def

/boxprim {				% xcorner ycorner xsize ysize
		4 2 roll
		moveto
		2 copy
		exch 0 rlineto
		0 exch rlineto
		pop neg 0 rlineto
		closepath
} bind def

/ellipse_path {
	/ry exch def
	/rx exch def
	/y exch def
	/x exch def
	matrix currentmatrix
	newpath
	x y translate
	rx ry scale
	0 0 1 0 360 arc
	setmatrix
} bind def

/endpage { showpage } bind def
/showpage { } def

/layercolorseq
	[	% layer color sequence - darkest to lightest
		[0 0 0]
		[.2 .8 .8]
		[.4 .8 .8]
		[.6 .8 .8]
		[.8 .8 .8]
	]
def

/layerlen layercolorseq length def

/setlayer {/maxlayer exch def /curlayer exch def
	layercolorseq curlayer 1 sub layerlen mod get
	aload pop sethsbcolor
	/nodecolor {nopcolor} def
	/edgecolor {nopcolor} def
	/graphcolor {nopcolor} def
} bind def

/onlayer { curlayer ne {invis} if } def

/onlayers {
	/myupper exch def
	/mylower exch def
	curlayer mylower lt
	curlayer myupper gt
	or
	{invis} if
} def

/curlayer 0 def

%%EndResource
%%EndProlog
%%BeginSetup
14 default-font-family set_font
1 setmiterlimit
% /arrowlength 10 def
% /arrowwidth 5 def

% make sure pdfmark is harmless for PS-interpreters other than Distiller
/pdfmark where {pop} {userdict /pdfmark /cleartomark load put} ifelse
% make '<<' and '>>' safe on PS Level 1 devices
/languagelevel where {pop languagelevel}{1} ifelse
2 lt {
    userdict (<<) cvn ([) cvn load put
    userdict (>>) cvn ([) cvn load put
} if

%%EndSetup
setupLatin1
%%Page: 1 1
%%PageBoundingBox: 36 36 948 382
%%PageOrientation: Portrait
0 0 1 beginpage
gsave
36 36 912 346 boxprim clip newpath
1 1 set_scale 0 rotate 40 40 translate
% lalr_state0
gsave
1 setlinewidth
0.000 0.000 0.000 nodecolor
newpath 0 238 moveto
0 338 lineto
198 338 lineto
198 238 lineto
closepath stroke
0.000 0.000 0.000 nodecolor
14 /Times-Roman set_font
23 320.9 moveto 152 (S ::= . S S AT , {$ A }) alignedtext
1 setlinewidth
0.000 0.000 0.000 nodecolor
newpath 0 313 moveto
198 313 lineto
stroke
0.000 0.000 0.000 nodecolor
14 /Times-Roman set_font
39 295.9 moveto 120 (S' ::= . S $ , {$ }) alignedtext
1 setlinewidth
0.000 0.000 0.000 nodecolor
newpath 0 288 moveto
198 288 lineto
stroke
0.000 0.000 0.000 nodecolor
14 /Times-Roman set_font
40.5 270.9 moveto 117 (S ::= . A , {$ A }) alignedtext
1 setlinewidth
0.000 0.000 0.000 nodecolor
newpath 0 263 moveto
198 263 lineto
stroke
0.000 0.000 0.000 nodecolor
14 /Times-Roman set_font
8 245.9 moveto 182 (S ::= . S S CARET , {$ A }) alignedtext
grestore
% lalr_state1
gsave
1 setlinewidth
0.000 0.000 0.000 nodecolor
newpath 728 281 moveto
728 317 lineto
888 317 lineto
888 281 lineto
closepath stroke
0.000 0.000 0.000 nodecolor
14 /Times-Roman set_font
736 300.4 moveto 144 (S -> a . , {$ ^ a @ }) alignedtext
grestore
% lalr_state0->lalr_state1
gsave
1 setlinewidth
0.000 0.000 0.000 edgecolor
newpath 198 324 moveto
311 323 500 319 662 311 curveto
680 310 700 309 718 308 curveto
stroke
0.000 0.000 0.000 edgecolor
newpath 718.4 311.48 moveto
728 307 lineto
717.7 304.51 lineto
closepath fill
1 setlinewidth
solid
0.000 0.000 0.000 edgecolor
newpath 718.4 311.48 moveto
728 307 lineto
717.7 304.51 lineto
closepath stroke
0.000 0.000 0.000 edgecolor
14 /Times-Roman set_font
443 321.9 moveto 8 (a) alignedtext
grestore
% lalr_state2
gsave
1 setlinewidth
0.000 0.000 0.000 nodecolor
newpath 245 120 moveto
245 270 lineto
424 270 lineto
424 120 lineto
closepath stroke
0.000 0.000 0.000 nodecolor
14 /Times-Roman set_font
263 252.9 moveto 142 (S -> S . S @ , {$ a }) alignedtext
1 setlinewidth
0.000 0.000 0.000 nodecolor
newpath 245 245 moveto
424 245 lineto
stroke
0.000 0.000 0.000 nodecolor
14 /Times-Roman set_font
252.5 227.9 moveto 163 (S -> . S S @ , {^ a @ }) alignedtext
1 setlinewidth
0.000 0.000 0.000 nodecolor
newpath 245 220 moveto
424 220 lineto
stroke
0.000 0.000 0.000 nodecolor
14 /Times-Roman set_font
276 202.9 moveto 116 (S' -> S . $ , {$ }) alignedtext
1 setlinewidth
0.000 0.000 0.000 nodecolor
newpath 245 195 moveto
424 195 lineto
stroke
0.000 0.000 0.000 nodecolor
14 /Times-Roman set_font
268.5 177.9 moveto 131 (S -> . a , {^ a @ }) alignedtext
1 setlinewidth
0.000 0.000 0.000 nodecolor
newpath 245 170 moveto
424 170 lineto
stroke
0.000 0.000 0.000 nodecolor
14 /Times-Roman set_font
264 152.9 moveto 140 (S -> S . S ^ , {$ a }) alignedtext
1 setlinewidth
0.000 0.000 0.000 nodecolor
newpath 245 145 moveto
424 145 lineto
stroke
0.000 0.000 0.000 nodecolor
14 /Times-Roman set_font
253.5 127.9 moveto 161 (S -> . S S ^ , {^ a @ }) alignedtext
grestore
% lalr_state0->lalr_state2
gsave
1 setlinewidth
0.000 0.000 0.000 edgecolor
newpath 198 313 moveto
221 303 221 288 236 275 curveto
stroke
0.000 0.000 0.000 edgecolor
newpath 237.96 277.92 moveto
245 270 lineto
234.56 271.8 lineto
closepath fill
1 setlinewidth
solid
0.000 0.000 0.000 edgecolor
newpath 237.96 277.92 moveto
245 270 lineto
234.56 271.8 lineto
closepath stroke
0.000 0.000 0.000 edgecolor
14 /Times-Roman set_font
216.5 306.9 moveto 9 (S) alignedtext
grestore
% lalr_state2->lalr_state1
gsave
1 setlinewidth
0.000 0.000 0.000 edgecolor
newpath 424 268 moveto
439 269 455 271 470 272 curveto
555 281 650 288 718 292 curveto
stroke
0.000 0.000 0.000 edgecolor
newpath 717.7 295.49 moveto
728 293 lineto
718.4 288.52 lineto
closepath fill
1 setlinewidth
solid
0.000 0.000 0.000 edgecolor
newpath 717.7 295.49 moveto
728 293 lineto
718.4 288.52 lineto
closepath stroke
0.000 0.000 0.000 edgecolor
14 /Times-Roman set_font
562 294.9 moveto 8 (a) alignedtext
grestore
% lalr_state3
gsave
1 setlinewidth
0.000 0.000 0.000 nodecolor
newpath 470 53 moveto
470 228 lineto
662 228 lineto
662 53 lineto
closepath stroke
0.000 0.000 0.000 nodecolor
14 /Times-Roman set_font
478 210.9 moveto 176 (S -> S S . @ , {$ ^ a @ }) alignedtext
1 setlinewidth
0.000 0.000 0.000 nodecolor
newpath 470 203 moveto
662 203 lineto
stroke
0.000 0.000 0.000 nodecolor
14 /Times-Roman set_font
484.5 185.9 moveto 163 (S -> S . S @ , {^ a @ }) alignedtext
1 setlinewidth
0.000 0.000 0.000 nodecolor
newpath 470 178 moveto
662 178 lineto
stroke
0.000 0.000 0.000 nodecolor
14 /Times-Roman set_font
484.5 160.9 moveto 163 (S -> . S S @ , {^ a @ }) alignedtext
1 setlinewidth
0.000 0.000 0.000 nodecolor
newpath 470 153 moveto
662 153 lineto
stroke
0.000 0.000 0.000 nodecolor
14 /Times-Roman set_font
478.5 135.9 moveto 175 (S -> S S . ^ , {$ ^ a @ }) alignedtext
1 setlinewidth
0.000 0.000 0.000 nodecolor
newpath 470 128 moveto
662 128 lineto
stroke
0.000 0.000 0.000 nodecolor
14 /Times-Roman set_font
500.5 110.9 moveto 131 (S -> . a , {^ a @ }) alignedtext
1 setlinewidth
0.000 0.000 0.000 nodecolor
newpath 470 103 moveto
662 103 lineto
stroke
0.000 0.000 0.000 nodecolor
14 /Times-Roman set_font
485.5 85.9 moveto 161 (S -> S . S ^ , {^ a @ }) alignedtext
1 setlinewidth
0.000 0.000 0.000 nodecolor
newpath 470 78 moveto
662 78 lineto
stroke
0.000 0.000 0.000 nodecolor
14 /Times-Roman set_font
485.5 60.9 moveto 161 (S -> . S S ^ , {^ a @ }) alignedtext
grestore
% lalr_state2->lalr_state3
gsave
1 setlinewidth
0.000 0.000 0.000 edgecolor
newpath 423 245 moveto
441 241 447 236 460 231 curveto
stroke
0.000 0.000 0.000 edgecolor
newpath 461.43 234.23 moveto
470 228 lineto
459.42 227.52 lineto
closepath fill
1 setlinewidth
solid
0.000 0.000 0.000 edgecolor
newpath 461.43 234.23 moveto
470 228 lineto
459.42 227.52 lineto
closepath stroke
0.000 0.000 0.000 edgecolor
14 /Times-Roman set_font
442.5 244.9 moveto 9 (S) alignedtext
grestore
% lalr_state4
gsave
1 setlinewidth
0.000 0.000 0.000 nodecolor
newpath 503 0 moveto
503 36 lineto
630 36 lineto
630 0 lineto
closepath stroke
0.000 0.000 0.000 nodecolor
14 /Times-Roman set_font
510.5 19.4 moveto 111 (S' -> S $ . , {$}) alignedtext
grestore
% lalr_state2->lalr_state4
gsave
1 setlinewidth
0.000 0.000 0.000 edgecolor
newpath 423 245 moveto
457 214 439 78 470 45 curveto
477 38 484 33 493 30 curveto
stroke
0.000 0.000 0.000 edgecolor
newpath 495.02 32.96 moveto
503 26 lineto
492.42 26.46 lineto
closepath fill
1 setlinewidth
solid
0.000 0.000 0.000 edgecolor
newpath 495.02 32.96 moveto
503 26 lineto
492.42 26.46 lineto
closepath stroke
0.000 0.000 0.000 edgecolor
14 /Times-Roman set_font
442.5 212.9 moveto 9 ($) alignedtext
grestore
% lalr_state3->lalr_state1
gsave
1 setlinewidth
0.000 0.000 0.000 edgecolor
newpath 662 228 moveto
693 241 695 261 719 276 curveto
stroke
0.000 0.000 0.000 edgecolor
newpath 717.56 279.2 moveto
728 281 lineto
720.96 273.08 lineto
closepath fill
1 setlinewidth
solid
0.000 0.000 0.000 edgecolor
newpath 717.56 279.2 moveto
728 281 lineto
720.96 273.08 lineto
closepath stroke
0.000 0.000 0.000 edgecolor
14 /Times-Roman set_font
683 256.9 moveto 8 (a) alignedtext
grestore
% lalr_state3->lalr_state3
gsave
1 setlinewidth
0.000 0.000 0.000 edgecolor
newpath 549 228 moveto
539 239 544 246 566 246 curveto
581 246 588 243 588 237 curveto
stroke
0.000 0.000 0.000 edgecolor
newpath 590.92 235.04 moveto
583 228 lineto
584.8 238.44 lineto
closepath fill
1 setlinewidth
solid
0.000 0.000 0.000 edgecolor
newpath 590.92 235.04 moveto
583 228 lineto
584.8 238.44 lineto
closepath stroke
0.000 0.000 0.000 edgecolor
14 /Times-Roman set_font
561.5 250.9 moveto 9 (S) alignedtext
grestore
% lalr_state5
gsave
1 setlinewidth
0.000 0.000 0.000 nodecolor
newpath 712 200 moveto
712 236 lineto
904 236 lineto
904 200 lineto
closepath stroke
0.000 0.000 0.000 nodecolor
14 /Times-Roman set_font
720 219.4 moveto 176 (S -> S S @ . , {$ ^ a @ }) alignedtext
grestore
% lalr_state3->lalr_state5
gsave
1 setlinewidth
0.000 0.000 0.000 edgecolor
newpath 662 216 moveto
675 216 688 216 702 216 curveto
stroke
0.000 0.000 0.000 edgecolor
newpath 701.7 219.49 moveto
712 217 lineto
702.4 212.52 lineto
closepath fill
1 setlinewidth
solid
0.000 0.000 0.000 edgecolor
newpath 701.7 219.49 moveto
712 217 lineto
702.4 212.52 lineto
closepath stroke
0.000 0.000 0.000 edgecolor
14 /Times-Roman set_font
680 221.9 moveto 14 (@) alignedtext
grestore
% lalr_state6
gsave
1 setlinewidth
0.000 0.000 0.000 nodecolor
newpath 713 146 moveto
713 182 lineto
904 182 lineto
904 146 lineto
closepath stroke
0.000 0.000 0.000 nodecolor
14 /Times-Roman set_font
720.5 165.4 moveto 175 (S -> S S ^ . , {$ ^ a @ }) alignedtext
grestore
% lalr_state3->lalr_state6
gsave
1 setlinewidth
0.000 0.000 0.000 edgecolor
newpath 662 203 moveto
674 197 669 186 680 179 curveto
687 175 695 171 703 169 curveto
stroke
0.000 0.000 0.000 edgecolor
newpath 703.88 172.39 moveto
713 167 lineto
702.51 165.53 lineto
closepath fill
1 setlinewidth
solid
0.000 0.000 0.000 edgecolor
newpath 703.88 172.39 moveto
713 167 lineto
702.51 165.53 lineto
closepath stroke
0.000 0.000 0.000 edgecolor
14 /Times-Roman set_font
681 186.9 moveto 12 (^) alignedtext
grestore
endpage
showpage
grestore
%%PageTrailer
%%EndPage: 1
%%Trailer
end
restore
%%EOF
