<svg murr >
  <rect
     x="59"
     y="30"
     width="300"
     height="250"
     
     fill="red"
     />
  <rect
     x="358"
     y="30"
     width="300"
     height="250"
     
     fill="green"
     />
  <!-- white circle on top of rectangles -->
  <!-- black diagonal line -->
  <circle
     cx="120"
     cy="150"
     r="60"
     fill="white" />
  <circle
     cx="120"
     cy="150"
     r="60"
     fill="white" />
  <circle
     cx="120"
     cy="150"
     r="60"
     fill="white" />
  <circle
     cx="120"
     cy="150"
     r="60"
     fill="white" />
  <rect
     x="58"
     y="279"
     width="300"
     height="250"
     
     fill="blue"
     />
  <circle
     cx="120"
     cy="150"
     r="60"
     fill="white" />
  <line
     x1="350"
     y1="393"
     x2="303"
     y2="496"
     
     stroke="white" />
  <line
     x1="317"
     y1="393"
     x2="270"
     y2="496"
     
     stroke="white" />
  <line
     x1="284"
     y1="402"
     x2="237"
     y2="505"
     
     stroke="white" />
  <line
     x1="267"
     y1="393"
     x2="220"
     y2="496"
     
     stroke="white" />
  <line
     x1="228"
     y1="383"
     x2="181"
     y2="486"
     
     stroke="white" />
  <line
     x1="206"
     y1="375"
     x2="159"
     y2="478"
     
     stroke="white" />
  <line
     x1="169"
     y1="404"
     x2="122"
     y2="507"
     
     stroke="white" />
  <line
     x1="149"
     y1="404"
     x2="102"
     y2="507"
     
     stroke="white" />
  <line
     x1="131"
     y1="377"
     x2="84"
     y2="480"
     
     stroke="white" />
  <line
     x1="130"
     y1="334"
     x2="83"
     y2="437"
     
     stroke="white" />
  <line
     x1="122"
     y1="310"
     x2="75"
     y2="413"
     
     stroke="white" />
  <line
     x1="126"
     y1="308"
     x2="78"
     y2="411"
     
     stroke="white" />
  <line
     x1="203"
     y1="305"
     x2="155"
     y2="408"
     
     stroke="white" />
  <line
     x1="224"
     y1="312"
     x2="177"
     y2="414"
     
     stroke="white" />
  <line
     x1="252"
     y1="322"
     x2="204"
     y2="424"
     
     stroke="white" />
  <line
     x1="300"
     y1="304"
     x2="252"
     y2="407"
     
     stroke="white" />
  <line
     x1="335"
     y1="298"
     x2="288"
     y2="401"
     
     stroke="white" />
  <line
     x1="347"
     y1="323"
     x2="300"
     y2="425"
     
     stroke="white" />
  <line
     x1="335"
     y1="356"
     x2="288"
     y2="459"
     
     stroke="white" />
  <line
     x1="284"
     y1="332"
     x2="237"
     y2="434"
     
     stroke="white" />
  <line
     x1="274"
     y1="309"
     x2="227"
     y2="412"
     
     stroke="white" />
  <line
     x1="246"
     y1="308"
     x2="199"
     y2="411"
     
     stroke="white" />
  <line
     x1="199"
     y1="306"
     x2="152"
     y2="409"
     
     stroke="white" />
  <line
     x1="159"
     y1="297"
     x2="112"
     y2="400"
     
     stroke="white" />
  <line
     x1="139"
     y1="296"
     x2="92"
     y2="399"
     
     stroke="white" />
  <line
     x1="122"
     y1="303"
     x2="75"
     y2="405"
     
     stroke="white" />
  <line
     x1="111"
     y1="338"
     x2="64"
     y2="441"
     
     stroke="white" />
  <line
     x1="117"
     y1="381"
     x2="70"
     y2="483"
     
     stroke="white" />
  <line
     x1="141"
     y1="427"
     x2="94"
     y2="530"
     
     stroke="white" />
  <line
     x1="195"
     y1="430"
     x2="148"
     y2="532"
     
     stroke="white" />
  <line
     x1="269"
     y1="429"
     x2="222"
     y2="531"
     
     stroke="white" />
  <line
     x1="333"
     y1="429"
     x2="286"
     y2="531"
     
     stroke="white" />
  <line
     x1="359"
     y1="434"
     x2="311"
     y2="537"
     
     stroke="white" />
  <line
     x1="362"
     y1="406"
     x2="315"
     y2="509"
     
     stroke="white" />
  <line
     x1="351"
     y1="348"
     x2="304"
     y2="451"
     
     stroke="white" />
  <line
     x1="336"
     y1="294"
     x2="289"
     y2="396"
     
     stroke="white" />
  <line
     x1="293"
     y1="276"
     x2="246"
     y2="379"
     
     stroke="white" />
  <line
     x1="233"
     y1="276"
     x2="185"
     y2="379"
     
     stroke="white" />
  <line
     x1="181"
     y1="276"
     x2="134"
     y2="379"
     
     stroke="white" />
  <line
     x1="130"
     y1="281"
     x2="83"
     y2="384"
     
     stroke="white" />
  <line
     x1="102"
     y1="291"
     x2="55"
     y2="394"
     
     stroke="white" />
  <line
     x1="91"
     y1="326"
     x2="44"
     y2="429"
     
     stroke="white" />
  <line
     x1="106"
     y1="407"
     x2="58"
     y2="510"
     
     stroke="white" />
  <line
     x1="143"
     y1="434"
     x2="96"
     y2="537"
     
     stroke="white" />
  <line
     x1="316"
     y1="468"
     x2="269"
     y2="570"
     
     stroke="white" />
  <line
     x1="206"
     y1="440"
     x2="159"
     y2="543"
     
     stroke="white" />
  <line
     x1="366"
     y1="477"
     x2="319"
     y2="579"
     
     stroke="white" />
  <line
     x1="276"
     y1="449"
     x2="229"
     y2="551"
     
     stroke="white" />
  <rect
     x="359"
     y="278"
     width="300"
     height="250"
     
     fill="black" />
  <rect
     x="380"
     y="297"
     width="92"
     height="77"
     
     fill="white" />
  <rect
     x="450"
     y="320"
     width="92"
     height="77"
     
     fill="white" />
  <rect
     x="513"
     y="293"
     width="92"
     height="77"
     
     fill="white" />
  <rect
     x="553"
     y="348"
     width="92"
     height="77"
     
     fill="white" />
  <rect
     x="493"
     y="372"
     width="92"
     height="77"
     
     fill="white" />
  <rect
     x="412"
     y="364"
     width="92"
     height="77"
     
     fill="white" />
  <rect
     x="402"
     y="425"
     width="92"
     height="77"
     
     fill="white" />
  <rect
     x="501"
     y="427"
     width="92"
     height="77"
     
     fill="white" />
  <rect
     x="497"
     y="344"
     width="92"
     height="77"
     
     fill="white" />
  <rect
     x="441"
     y="441"
     width="92"
     height="77"
     
     fill="white" />
  <rect
     x="540"
     y="415"
     width="92"
     height="77"
     
     fill="white" />
</svg>
