digraph ASTGraph {
0 [ label="PrintStatement" ];
1 [ label="PlusExp" ];
0 -> 1
2 [ label="MulExp" ];
1 -> 2
3 [ label="IntegerExp" ];
2 -> 3
4 [ label="Token\n2" ];
3 -> 4
5 [ label="MinusExp" ];
2 -> 5
6 [ label="IntegerExp" ];
5 -> 6
7 [ label="Token\n6" ];
6 -> 7
8 [ label="IntegerExp" ];
5 -> 8
9 [ label="Token\n1" ];
8 -> 9
10 [ label="IntegerExp" ];
1 -> 10
11 [ label="Token\n2" ];
10 -> 11
}
