digraph ASTGraph {
0 [ label="BlockStatement" ];
1 [ label="AssignStatement" ];
0 -> 1
2 [ label="Token\nbunnies" ];
1 -> 2
3 [ label="IntegerExp" ];
1 -> 3
4 [ label="Token\n1" ];
3 -> 4
5 [ label="AssignStatement" ];
0 -> 5
6 [ label="Token\noldbunnies" ];
5 -> 6
7 [ label="IntegerExp" ];
5 -> 7
8 [ label="Token\n1" ];
7 -> 8
9 [ label="AssignStatement" ];
0 -> 9
10 [ label="Token\ntempbunnies" ];
9 -> 10
11 [ label="IdExp" ];
9 -> 11
12 [ label="Token\nbunnies" ];
11 -> 12
13 [ label="AssignStatement" ];
0 -> 13
14 [ label="Token\nbunnies" ];
13 -> 14
15 [ label="PlusExp" ];
13 -> 15
16 [ label="IdExp" ];
15 -> 16
17 [ label="Token\nbunnies" ];
16 -> 17
18 [ label="IdExp" ];
15 -> 18
19 [ label="Token\noldbunnies" ];
18 -> 19
20 [ label="AssignStatement" ];
0 -> 20
21 [ label="Token\noldbunnies" ];
20 -> 21
22 [ label="IdExp" ];
20 -> 22
23 [ label="Token\ntempbunnies" ];
22 -> 23
24 [ label="PrintStatement" ];
0 -> 24
25 [ label="IdExp" ];
24 -> 25
26 [ label="Token\nbunnies" ];
25 -> 26
27 [ label="AssignStatement" ];
0 -> 27
28 [ label="Token\ntempbunnies" ];
27 -> 28
29 [ label="IdExp" ];
27 -> 29
30 [ label="Token\nbunnies" ];
29 -> 30
31 [ label="AssignStatement" ];
0 -> 31
32 [ label="Token\nbunnies" ];
31 -> 32
33 [ label="PlusExp" ];
31 -> 33
34 [ label="IdExp" ];
33 -> 34
35 [ label="Token\nbunnies" ];
34 -> 35
36 [ label="IdExp" ];
33 -> 36
37 [ label="Token\noldbunnies" ];
36 -> 37
38 [ label="AssignStatement" ];
0 -> 38
39 [ label="Token\noldbunnies" ];
38 -> 39
40 [ label="IdExp" ];
38 -> 40
41 [ label="Token\ntempbunnies" ];
40 -> 41
42 [ label="PrintStatement" ];
0 -> 42
43 [ label="IdExp" ];
42 -> 43
44 [ label="Token\nbunnies" ];
43 -> 44
45 [ label="AssignStatement" ];
0 -> 45
46 [ label="Token\ntempbunnies" ];
45 -> 46
47 [ label="IdExp" ];
45 -> 47
48 [ label="Token\nbunnies" ];
47 -> 48
49 [ label="AssignStatement" ];
0 -> 49
50 [ label="Token\nbunnies" ];
49 -> 50
51 [ label="PlusExp" ];
49 -> 51
52 [ label="IdExp" ];
51 -> 52
53 [ label="Token\nbunnies" ];
52 -> 53
54 [ label="IdExp" ];
51 -> 54
55 [ label="Token\noldbunnies" ];
54 -> 55
56 [ label="AssignStatement" ];
0 -> 56
57 [ label="Token\noldbunnies" ];
56 -> 57
58 [ label="IdExp" ];
56 -> 58
59 [ label="Token\ntempbunnies" ];
58 -> 59
60 [ label="PrintStatement" ];
0 -> 60
61 [ label="IdExp" ];
60 -> 61
62 [ label="Token\nbunnies" ];
61 -> 62
63 [ label="AssignStatement" ];
0 -> 63
64 [ label="Token\ntempbunnies" ];
63 -> 64
65 [ label="IdExp" ];
63 -> 65
66 [ label="Token\nbunnies" ];
65 -> 66
67 [ label="AssignStatement" ];
0 -> 67
68 [ label="Token\nbunnies" ];
67 -> 68
69 [ label="PlusExp" ];
67 -> 69
70 [ label="IdExp" ];
69 -> 70
71 [ label="Token\nbunnies" ];
70 -> 71
72 [ label="IdExp" ];
69 -> 72
73 [ label="Token\noldbunnies" ];
72 -> 73
74 [ label="AssignStatement" ];
0 -> 74
75 [ label="Token\noldbunnies" ];
74 -> 75
76 [ label="IdExp" ];
74 -> 76
77 [ label="Token\ntempbunnies" ];
76 -> 77
78 [ label="PrintStatement" ];
0 -> 78
79 [ label="IdExp" ];
78 -> 79
80 [ label="Token\nbunnies" ];
79 -> 80
81 [ label="AssignStatement" ];
0 -> 81
82 [ label="Token\ntempbunnies" ];
81 -> 82
83 [ label="IdExp" ];
81 -> 83
84 [ label="Token\nbunnies" ];
83 -> 84
85 [ label="AssignStatement" ];
0 -> 85
86 [ label="Token\nbunnies" ];
85 -> 86
87 [ label="PlusExp" ];
85 -> 87
88 [ label="IdExp" ];
87 -> 88
89 [ label="Token\nbunnies" ];
88 -> 89
90 [ label="IdExp" ];
87 -> 90
91 [ label="Token\noldbunnies" ];
90 -> 91
92 [ label="AssignStatement" ];
0 -> 92
93 [ label="Token\noldbunnies" ];
92 -> 93
94 [ label="IdExp" ];
92 -> 94
95 [ label="Token\ntempbunnies" ];
94 -> 95
96 [ label="PrintStatement" ];
0 -> 96
97 [ label="IdExp" ];
96 -> 97
98 [ label="Token\nbunnies" ];
97 -> 98
99 [ label="AssignStatement" ];
0 -> 99
100 [ label="Token\ntempbunnies" ];
99 -> 100
101 [ label="IdExp" ];
99 -> 101
102 [ label="Token\nbunnies" ];
101 -> 102
103 [ label="AssignStatement" ];
0 -> 103
104 [ label="Token\nbunnies" ];
103 -> 104
105 [ label="PlusExp" ];
103 -> 105
106 [ label="IdExp" ];
105 -> 106
107 [ label="Token\nbunnies" ];
106 -> 107
108 [ label="IdExp" ];
105 -> 108
109 [ label="Token\noldbunnies" ];
108 -> 109
110 [ label="AssignStatement" ];
0 -> 110
111 [ label="Token\noldbunnies" ];
110 -> 111
112 [ label="IdExp" ];
110 -> 112
113 [ label="Token\ntempbunnies" ];
112 -> 113
114 [ label="PrintStatement" ];
0 -> 114
115 [ label="IdExp" ];
114 -> 115
116 [ label="Token\nbunnies" ];
115 -> 116
117 [ label="AssignStatement" ];
0 -> 117
118 [ label="Token\ntempbunnies" ];
117 -> 118
119 [ label="IdExp" ];
117 -> 119
120 [ label="Token\nbunnies" ];
119 -> 120
121 [ label="AssignStatement" ];
0 -> 121
122 [ label="Token\nbunnies" ];
121 -> 122
123 [ label="PlusExp" ];
121 -> 123
124 [ label="IdExp" ];
123 -> 124
125 [ label="Token\nbunnies" ];
124 -> 125
126 [ label="IdExp" ];
123 -> 126
127 [ label="Token\noldbunnies" ];
126 -> 127
128 [ label="AssignStatement" ];
0 -> 128
129 [ label="Token\noldbunnies" ];
128 -> 129
130 [ label="IdExp" ];
128 -> 130
131 [ label="Token\ntempbunnies" ];
130 -> 131
132 [ label="PrintStatement" ];
0 -> 132
133 [ label="IdExp" ];
132 -> 133
134 [ label="Token\nbunnies" ];
133 -> 134
135 [ label="AssignStatement" ];
0 -> 135
136 [ label="Token\ntempbunnies" ];
135 -> 136
137 [ label="IdExp" ];
135 -> 137
138 [ label="Token\nbunnies" ];
137 -> 138
139 [ label="AssignStatement" ];
0 -> 139
140 [ label="Token\nbunnies" ];
139 -> 140
141 [ label="PlusExp" ];
139 -> 141
142 [ label="IdExp" ];
141 -> 142
143 [ label="Token\nbunnies" ];
142 -> 143
144 [ label="IdExp" ];
141 -> 144
145 [ label="Token\noldbunnies" ];
144 -> 145
146 [ label="AssignStatement" ];
0 -> 146
147 [ label="Token\noldbunnies" ];
146 -> 147
148 [ label="IdExp" ];
146 -> 148
149 [ label="Token\ntempbunnies" ];
148 -> 149
150 [ label="PrintStatement" ];
0 -> 150
151 [ label="IdExp" ];
150 -> 151
152 [ label="Token\nbunnies" ];
151 -> 152
}
