digraph ASTGraph {
0 [ label="BlockStatement" ];
1 [ label="AssignStatement" ];
0 -> 1
2 [ label="Token\na" ];
1 -> 2
3 [ label="IntegerExp" ];
1 -> 3
4 [ label="Token\n2" ];
3 -> 4
5 [ label="PrintStatement" ];
0 -> 5
6 [ label="PlusExp" ];
5 -> 6
7 [ label="IntegerExp" ];
6 -> 7
8 [ label="Token\n7" ];
7 -> 8
9 [ label="MulExp" ];
6 -> 9
10 [ label="IntegerExp" ];
9 -> 10
11 [ label="Token\n1" ];
10 -> 11
12 [ label="IdExp" ];
9 -> 12
13 [ label="Token\na" ];
12 -> 13
}
