digraph ASTGraph {
0 [ label="PrintStatement" ];
1 [ label="PlusExp" ];
0 -> 1
2 [ label="PlusExp" ];
1 -> 2
3 [ label="PlusExp" ];
2 -> 3
4 [ label="PlusExp" ];
3 -> 4
5 [ label="PlusExp" ];
4 -> 5
6 [ label="PlusExp" ];
5 -> 6
7 [ label="PlusExp" ];
6 -> 7
8 [ label="PlusExp" ];
7 -> 8
9 [ label="PlusExp" ];
8 -> 9
10 [ label="PlusExp" ];
9 -> 10
11 [ label="PlusExp" ];
10 -> 11
12 [ label="IntegerExp" ];
11 -> 12
13 [ label="Token\n1" ];
12 -> 13
14 [ label="IntegerExp" ];
11 -> 14
15 [ label="Token\n2" ];
14 -> 15
16 [ label="IntegerExp" ];
10 -> 16
17 [ label="Token\n3" ];
16 -> 17
18 [ label="IntegerExp" ];
9 -> 18
19 [ label="Token\n4" ];
18 -> 19
20 [ label="IntegerExp" ];
8 -> 20
21 [ label="Token\n5" ];
20 -> 21
22 [ label="IntegerExp" ];
7 -> 22
23 [ label="Token\n6" ];
22 -> 23
24 [ label="IntegerExp" ];
6 -> 24
25 [ label="Token\n7" ];
24 -> 25
26 [ label="IntegerExp" ];
5 -> 26
27 [ label="Token\n8" ];
26 -> 27
28 [ label="IntegerExp" ];
4 -> 28
29 [ label="Token\n9" ];
28 -> 29
30 [ label="IntegerExp" ];
3 -> 30
31 [ label="Token\n10" ];
30 -> 31
32 [ label="IntegerExp" ];
2 -> 32
33 [ label="Token\n11" ];
32 -> 33
34 [ label="IntegerExp" ];
1 -> 34
35 [ label="Token\n12" ];
34 -> 35
}
