digraph ASTGraph {
0 [ label="BlockStatement" ];
1 [ label="AssignStatement" ];
0 -> 1
2 [ label="Token\na" ];
1 -> 2
3 [ label="PlusExp" ];
1 -> 3
4 [ label="IntegerExp" ];
3 -> 4
5 [ label="Token\n47" ];
4 -> 5
6 [ label="IntegerExp" ];
3 -> 6
7 [ label="Token\n2" ];
6 -> 7
8 [ label="AssignStatement" ];
0 -> 8
9 [ label="Token\na2" ];
8 -> 9
10 [ label="MulExp" ];
8 -> 10
11 [ label="IdExp" ];
10 -> 11
12 [ label="Token\na" ];
11 -> 12
13 [ label="IntegerExp" ];
10 -> 13
14 [ label="Token\n2" ];
13 -> 14
15 [ label="PrintStatement" ];
0 -> 15
16 [ label="IdExp" ];
15 -> 16
17 [ label="Token\na2" ];
16 -> 17
}
