digraph ASTGraph {
0 [ label="PrintStatement" ];
1 [ label="MulExp" ];
0 -> 1
2 [ label="MulExp" ];
1 -> 2
3 [ label="IntegerExp" ];
2 -> 3
4 [ label="Token\n1" ];
3 -> 4
5 [ label="IntegerExp" ];
2 -> 5
6 [ label="Token\n2" ];
5 -> 6
7 [ label="IntegerExp" ];
1 -> 7
8 [ label="Token\n5" ];
7 -> 8
}
