digraph ASTGraph {
0 [ label="PrintStatement" ];
1 [ label="PlusExp" ];
0 -> 1
2 [ label="MinusExp" ];
1 -> 2
3 [ label="MulExp" ];
2 -> 3
4 [ label="IntegerExp" ];
3 -> 4
5 [ label="Token\n9" ];
4 -> 5
6 [ label="IntegerExp" ];
3 -> 6
7 [ label="Token\n3" ];
6 -> 7
8 [ label="MulExp" ];
2 -> 8
9 [ label="IntegerExp" ];
8 -> 9
10 [ label="Token\n10" ];
9 -> 10
11 [ label="IntegerExp" ];
8 -> 11
12 [ label="Token\n3" ];
11 -> 12
13 [ label="MinusExp" ];
1 -> 13
14 [ label="IntegerExp" ];
13 -> 14
15 [ label="Token\n4" ];
14 -> 15
16 [ label="IntegerExp" ];
13 -> 16
17 [ label="Token\n10" ];
16 -> 17
}
