digraph ASTGraph {
0 [ label="BlockStatement" ];
1 [ label="AssignStatement" ];
0 -> 1
2 [ label="Token\na" ];
1 -> 2
3 [ label="IntegerExp" ];
1 -> 3
4 [ label="Token\n42" ];
3 -> 4
5 [ label="AssignStatement" ];
0 -> 5
6 [ label="Token\nb" ];
5 -> 6
7 [ label="MinusExp" ];
5 -> 7
8 [ label="MinusExp" ];
7 -> 8
9 [ label="MinusExp" ];
8 -> 9
10 [ label="MulExp" ];
9 -> 10
11 [ label="IdExp" ];
10 -> 11
12 [ label="Token\na" ];
11 -> 12
13 [ label="IntegerExp" ];
10 -> 13
14 [ label="Token\n2" ];
13 -> 14
15 [ label="IntegerExp" ];
9 -> 15
16 [ label="Token\n12" ];
15 -> 16
17 [ label="IntegerExp" ];
8 -> 17
18 [ label="Token\n12" ];
17 -> 18
19 [ label="IntegerExp" ];
7 -> 19
20 [ label="Token\n12" ];
19 -> 20
21 [ label="BlockStatement" ];
0 -> 21
22 [ label="BlockStatement" ];
21 -> 22
23 [ label="PrintStatement" ];
22 -> 23
24 [ label="MinusExp" ];
23 -> 24
25 [ label="MinusExp" ];
24 -> 25
26 [ label="MinusExp" ];
25 -> 26
27 [ label="MinusExp" ];
26 -> 27
28 [ label="MinusExp" ];
27 -> 28
29 [ label="MinusExp" ];
28 -> 29
30 [ label="MinusExp" ];
29 -> 30
31 [ label="MinusExp" ];
30 -> 31
32 [ label="MinusExp" ];
31 -> 32
33 [ label="MinusExp" ];
32 -> 33
34 [ label="MinusExp" ];
33 -> 34
35 [ label="PlusExp" ];
34 -> 35
36 [ label="PlusExp" ];
35 -> 36
37 [ label="PlusExp" ];
36 -> 37
38 [ label="PlusExp" ];
37 -> 38
39 [ label="PlusExp" ];
38 -> 39
40 [ label="PlusExp" ];
39 -> 40
41 [ label="PlusExp" ];
40 -> 41
42 [ label="IntegerExp" ];
41 -> 42
43 [ label="Token\n2" ];
42 -> 43
44 [ label="IntegerExp" ];
41 -> 44
45 [ label="Token\n4" ];
44 -> 45
46 [ label="IntegerExp" ];
40 -> 46
47 [ label="Token\n1" ];
46 -> 47
48 [ label="IntegerExp" ];
39 -> 48
49 [ label="Token\n1" ];
48 -> 49
50 [ label="IntegerExp" ];
38 -> 50
51 [ label="Token\n1" ];
50 -> 51
52 [ label="IntegerExp" ];
37 -> 52
53 [ label="Token\n1" ];
52 -> 53
54 [ label="IntegerExp" ];
36 -> 54
55 [ label="Token\n1" ];
54 -> 55
56 [ label="IntegerExp" ];
35 -> 56
57 [ label="Token\n2" ];
56 -> 57
58 [ label="IntegerExp" ];
34 -> 58
59 [ label="Token\n2" ];
58 -> 59
60 [ label="IntegerExp" ];
33 -> 60
61 [ label="Token\n2" ];
60 -> 61
62 [ label="IntegerExp" ];
32 -> 62
63 [ label="Token\n2" ];
62 -> 63
64 [ label="IntegerExp" ];
31 -> 64
65 [ label="Token\n2" ];
64 -> 65
66 [ label="IntegerExp" ];
30 -> 66
67 [ label="Token\n2" ];
66 -> 67
68 [ label="IntegerExp" ];
29 -> 68
69 [ label="Token\n2" ];
68 -> 69
70 [ label="IntegerExp" ];
28 -> 70
71 [ label="Token\n2" ];
70 -> 71
72 [ label="IntegerExp" ];
27 -> 72
73 [ label="Token\n2" ];
72 -> 73
74 [ label="IntegerExp" ];
26 -> 74
75 [ label="Token\n2" ];
74 -> 75
76 [ label="IntegerExp" ];
25 -> 76
77 [ label="Token\n2" ];
76 -> 77
78 [ label="IntegerExp" ];
24 -> 78
79 [ label="Token\n2" ];
78 -> 79
80 [ label="PrintStatement" ];
22 -> 80
81 [ label="MinusExp" ];
80 -> 81
82 [ label="IdExp" ];
81 -> 82
83 [ label="Token\nb" ];
82 -> 83
84 [ label="IntegerExp" ];
81 -> 84
85 [ label="Token\n1" ];
84 -> 85
86 [ label="PrintStatement" ];
22 -> 86
87 [ label="MinusExp" ];
86 -> 87
88 [ label="IdExp" ];
87 -> 88
89 [ label="Token\nb" ];
88 -> 89
90 [ label="IntegerExp" ];
87 -> 90
91 [ label="Token\n2" ];
90 -> 91
92 [ label="PrintStatement" ];
22 -> 92
93 [ label="MinusExp" ];
92 -> 93
94 [ label="IdExp" ];
93 -> 94
95 [ label="Token\nb" ];
94 -> 95
96 [ label="IntegerExp" ];
93 -> 96
97 [ label="Token\n3" ];
96 -> 97
98 [ label="PrintStatement" ];
22 -> 98
99 [ label="MinusExp" ];
98 -> 99
100 [ label="IdExp" ];
99 -> 100
101 [ label="Token\nb" ];
100 -> 101
102 [ label="IntegerExp" ];
99 -> 102
103 [ label="Token\n4" ];
102 -> 103
104 [ label="BlockStatement" ];
0 -> 104
105 [ label="BlockStatement" ];
104 -> 105
106 [ label="PrintStatement" ];
105 -> 106
107 [ label="MinusExp" ];
106 -> 107
108 [ label="MinusExp" ];
107 -> 108
109 [ label="MinusExp" ];
108 -> 109
110 [ label="MinusExp" ];
109 -> 110
111 [ label="MinusExp" ];
110 -> 111
112 [ label="MinusExp" ];
111 -> 112
113 [ label="MinusExp" ];
112 -> 113
114 [ label="MinusExp" ];
113 -> 114
115 [ label="MinusExp" ];
114 -> 115
116 [ label="MinusExp" ];
115 -> 116
117 [ label="MinusExp" ];
116 -> 117
118 [ label="PlusExp" ];
117 -> 118
119 [ label="PlusExp" ];
118 -> 119
120 [ label="IntegerExp" ];
119 -> 120
121 [ label="Token\n2" ];
120 -> 121
122 [ label="IntegerExp" ];
119 -> 122
123 [ label="Token\n4" ];
122 -> 123
124 [ label="IntegerExp" ];
118 -> 124
125 [ label="Token\n12" ];
124 -> 125
126 [ label="IntegerExp" ];
117 -> 126
127 [ label="Token\n2" ];
126 -> 127
128 [ label="IntegerExp" ];
116 -> 128
129 [ label="Token\n2" ];
128 -> 129
130 [ label="IntegerExp" ];
115 -> 130
131 [ label="Token\n2" ];
130 -> 131
132 [ label="IntegerExp" ];
114 -> 132
133 [ label="Token\n2" ];
132 -> 133
134 [ label="IntegerExp" ];
113 -> 134
135 [ label="Token\n2" ];
134 -> 135
136 [ label="IntegerExp" ];
112 -> 136
137 [ label="Token\n2" ];
136 -> 137
138 [ label="IntegerExp" ];
111 -> 138
139 [ label="Token\n2" ];
138 -> 139
140 [ label="IntegerExp" ];
110 -> 140
141 [ label="Token\n2" ];
140 -> 141
142 [ label="IntegerExp" ];
109 -> 142
143 [ label="Token\n2" ];
142 -> 143
144 [ label="IntegerExp" ];
108 -> 144
145 [ label="Token\n2" ];
144 -> 145
146 [ label="IntegerExp" ];
107 -> 146
147 [ label="Token\n2" ];
146 -> 147
148 [ label="BlockStatement" ];
0 -> 148
149 [ label="PrintStatement" ];
148 -> 149
150 [ label="PlusExp" ];
149 -> 150
151 [ label="MulExp" ];
150 -> 151
152 [ label="IntegerExp" ];
151 -> 152
153 [ label="Token\n2" ];
152 -> 153
154 [ label="PlusExp" ];
151 -> 154
155 [ label="MulExp" ];
154 -> 155
156 [ label="IntegerExp" ];
155 -> 156
157 [ label="Token\n2" ];
156 -> 157
158 [ label="PlusExp" ];
155 -> 158
159 [ label="MulExp" ];
158 -> 159
160 [ label="IntegerExp" ];
159 -> 160
161 [ label="Token\n2" ];
160 -> 161
162 [ label="PlusExp" ];
159 -> 162
163 [ label="MulExp" ];
162 -> 163
164 [ label="IntegerExp" ];
163 -> 164
165 [ label="Token\n2" ];
164 -> 165
166 [ label="PlusExp" ];
163 -> 166
167 [ label="MulExp" ];
166 -> 167
168 [ label="IntegerExp" ];
167 -> 168
169 [ label="Token\n2" ];
168 -> 169
170 [ label="PlusExp" ];
167 -> 170
171 [ label="MulExp" ];
170 -> 171
172 [ label="IntegerExp" ];
171 -> 172
173 [ label="Token\n2" ];
172 -> 173
174 [ label="PlusExp" ];
171 -> 174
175 [ label="MulExp" ];
174 -> 175
176 [ label="IntegerExp" ];
175 -> 176
177 [ label="Token\n2" ];
176 -> 177
178 [ label="PlusExp" ];
175 -> 178
179 [ label="MulExp" ];
178 -> 179
180 [ label="IntegerExp" ];
179 -> 180
181 [ label="Token\n2" ];
180 -> 181
182 [ label="PlusExp" ];
179 -> 182
183 [ label="MulExp" ];
182 -> 183
184 [ label="IntegerExp" ];
183 -> 184
185 [ label="Token\n2" ];
184 -> 185
186 [ label="PlusExp" ];
183 -> 186
187 [ label="MulExp" ];
186 -> 187
188 [ label="IntegerExp" ];
187 -> 188
189 [ label="Token\n2" ];
188 -> 189
190 [ label="PlusExp" ];
187 -> 190
191 [ label="MulExp" ];
190 -> 191
192 [ label="IntegerExp" ];
191 -> 192
193 [ label="Token\n2" ];
192 -> 193
194 [ label="PlusExp" ];
191 -> 194
195 [ label="MulExp" ];
194 -> 195
196 [ label="IntegerExp" ];
195 -> 196
197 [ label="Token\n2" ];
196 -> 197
198 [ label="PlusExp" ];
195 -> 198
199 [ label="MulExp" ];
198 -> 199
200 [ label="IntegerExp" ];
199 -> 200
201 [ label="Token\n2" ];
200 -> 201
202 [ label="PlusExp" ];
199 -> 202
203 [ label="MulExp" ];
202 -> 203
204 [ label="IntegerExp" ];
203 -> 204
205 [ label="Token\n2" ];
204 -> 205
206 [ label="PlusExp" ];
203 -> 206
207 [ label="MulExp" ];
206 -> 207
208 [ label="IntegerExp" ];
207 -> 208
209 [ label="Token\n2" ];
208 -> 209
210 [ label="PlusExp" ];
207 -> 210
211 [ label="MulExp" ];
210 -> 211
212 [ label="IntegerExp" ];
211 -> 212
213 [ label="Token\n2" ];
212 -> 213
214 [ label="PlusExp" ];
211 -> 214
215 [ label="MulExp" ];
214 -> 215
216 [ label="IntegerExp" ];
215 -> 216
217 [ label="Token\n2" ];
216 -> 217
218 [ label="PlusExp" ];
215 -> 218
219 [ label="MulExp" ];
218 -> 219
220 [ label="IntegerExp" ];
219 -> 220
221 [ label="Token\n2" ];
220 -> 221
222 [ label="PlusExp" ];
219 -> 222
223 [ label="MulExp" ];
222 -> 223
224 [ label="IntegerExp" ];
223 -> 224
225 [ label="Token\n2" ];
224 -> 225
226 [ label="PlusExp" ];
223 -> 226
227 [ label="MulExp" ];
226 -> 227
228 [ label="IntegerExp" ];
227 -> 228
229 [ label="Token\n2" ];
228 -> 229
230 [ label="IntegerExp" ];
227 -> 230
231 [ label="Token\n2" ];
230 -> 231
232 [ label="IntegerExp" ];
226 -> 232
233 [ label="Token\n2" ];
232 -> 233
234 [ label="IntegerExp" ];
222 -> 234
235 [ label="Token\n2" ];
234 -> 235
236 [ label="IntegerExp" ];
218 -> 236
237 [ label="Token\n2" ];
236 -> 237
238 [ label="IntegerExp" ];
214 -> 238
239 [ label="Token\n2" ];
238 -> 239
240 [ label="IntegerExp" ];
210 -> 240
241 [ label="Token\n2" ];
240 -> 241
242 [ label="IntegerExp" ];
206 -> 242
243 [ label="Token\n2" ];
242 -> 243
244 [ label="IntegerExp" ];
202 -> 244
245 [ label="Token\n2" ];
244 -> 245
246 [ label="IntegerExp" ];
198 -> 246
247 [ label="Token\n2" ];
246 -> 247
248 [ label="IntegerExp" ];
194 -> 248
249 [ label="Token\n2" ];
248 -> 249
250 [ label="IntegerExp" ];
190 -> 250
251 [ label="Token\n2" ];
250 -> 251
252 [ label="IntegerExp" ];
186 -> 252
253 [ label="Token\n2" ];
252 -> 253
254 [ label="IntegerExp" ];
182 -> 254
255 [ label="Token\n2" ];
254 -> 255
256 [ label="IntegerExp" ];
178 -> 256
257 [ label="Token\n2" ];
256 -> 257
258 [ label="IntegerExp" ];
174 -> 258
259 [ label="Token\n2" ];
258 -> 259
260 [ label="IntegerExp" ];
170 -> 260
261 [ label="Token\n2" ];
260 -> 261
262 [ label="IntegerExp" ];
166 -> 262
263 [ label="Token\n2" ];
262 -> 263
264 [ label="IntegerExp" ];
162 -> 264
265 [ label="Token\n2" ];
264 -> 265
266 [ label="IntegerExp" ];
158 -> 266
267 [ label="Token\n2" ];
266 -> 267
268 [ label="IntegerExp" ];
154 -> 268
269 [ label="Token\n2" ];
268 -> 269
270 [ label="IntegerExp" ];
150 -> 270
271 [ label="Token\n3" ];
270 -> 271
272 [ label="BlockStatement" ];
148 -> 272
273 [ label="AssignStatement" ];
272 -> 273
274 [ label="Token\ni" ];
273 -> 274
275 [ label="IntegerExp" ];
273 -> 275
276 [ label="Token\n2" ];
275 -> 276
277 [ label="PrintStatement" ];
272 -> 277
278 [ label="MinusExp" ];
277 -> 278
279 [ label="PlusExp" ];
278 -> 279
280 [ label="MinusExp" ];
279 -> 280
281 [ label="IdExp" ];
280 -> 281
282 [ label="Token\nb" ];
281 -> 282
283 [ label="IntegerExp" ];
280 -> 283
284 [ label="Token\n1" ];
283 -> 284
285 [ label="MulExp" ];
279 -> 285
286 [ label="MulExp" ];
285 -> 286
287 [ label="MulExp" ];
286 -> 287
288 [ label="MulExp" ];
287 -> 288
289 [ label="MulExp" ];
288 -> 289
290 [ label="IntegerExp" ];
289 -> 290
291 [ label="Token\n2" ];
290 -> 291
292 [ label="IntegerExp" ];
289 -> 292
293 [ label="Token\n2" ];
292 -> 293
294 [ label="IntegerExp" ];
288 -> 294
295 [ label="Token\n2" ];
294 -> 295
296 [ label="IntegerExp" ];
287 -> 296
297 [ label="Token\n2" ];
296 -> 297
298 [ label="IntegerExp" ];
286 -> 298
299 [ label="Token\n2234" ];
298 -> 299
300 [ label="IntegerExp" ];
285 -> 300
301 [ label="Token\n1" ];
300 -> 301
302 [ label="IntegerExp" ];
278 -> 302
303 [ label="Token\n2132" ];
302 -> 303
304 [ label="PrintStatement" ];
272 -> 304
305 [ label="PlusExp" ];
304 -> 305
306 [ label="MinusExp" ];
305 -> 306
307 [ label="IdExp" ];
306 -> 307
308 [ label="Token\nb" ];
307 -> 308
309 [ label="IntegerExp" ];
306 -> 309
310 [ label="Token\n2" ];
309 -> 310
311 [ label="IdExp" ];
305 -> 311
312 [ label="Token\ni" ];
311 -> 312
313 [ label="PrintStatement" ];
272 -> 313
314 [ label="PlusExp" ];
313 -> 314
315 [ label="PlusExp" ];
314 -> 315
316 [ label="MinusExp" ];
315 -> 316
317 [ label="MinusExp" ];
316 -> 317
318 [ label="MinusExp" ];
317 -> 318
319 [ label="IdExp" ];
318 -> 319
320 [ label="Token\nb" ];
319 -> 320
321 [ label="IntegerExp" ];
318 -> 321
322 [ label="Token\n3" ];
321 -> 322
323 [ label="IdExp" ];
317 -> 323
324 [ label="Token\ni" ];
323 -> 324
325 [ label="MulExp" ];
316 -> 325
326 [ label="IdExp" ];
325 -> 326
327 [ label="Token\ni" ];
326 -> 327
328 [ label="IdExp" ];
325 -> 328
329 [ label="Token\ni" ];
328 -> 329
330 [ label="IdExp" ];
315 -> 330
331 [ label="Token\nb" ];
330 -> 331
332 [ label="IdExp" ];
314 -> 332
333 [ label="Token\nb" ];
332 -> 333
334 [ label="PrintStatement" ];
272 -> 334
335 [ label="MinusExp" ];
334 -> 335
336 [ label="IdExp" ];
335 -> 336
337 [ label="Token\nb" ];
336 -> 337
338 [ label="IntegerExp" ];
335 -> 338
339 [ label="Token\n4" ];
338 -> 339
340 [ label="BlockStatement" ];
0 -> 340
341 [ label="BlockStatement" ];
340 -> 341
342 [ label="AssignStatement" ];
341 -> 342
343 [ label="Token\nbunnies" ];
342 -> 343
344 [ label="IntegerExp" ];
342 -> 344
345 [ label="Token\n1" ];
344 -> 345
346 [ label="AssignStatement" ];
341 -> 346
347 [ label="Token\noldbunnies" ];
346 -> 347
348 [ label="IntegerExp" ];
346 -> 348
349 [ label="Token\n1" ];
348 -> 349
350 [ label="AssignStatement" ];
341 -> 350
351 [ label="Token\ntempbunnies" ];
350 -> 351
352 [ label="IdExp" ];
350 -> 352
353 [ label="Token\nbunnies" ];
352 -> 353
354 [ label="AssignStatement" ];
341 -> 354
355 [ label="Token\nbunnies" ];
354 -> 355
356 [ label="PlusExp" ];
354 -> 356
357 [ label="IdExp" ];
356 -> 357
358 [ label="Token\nbunnies" ];
357 -> 358
359 [ label="IdExp" ];
356 -> 359
360 [ label="Token\noldbunnies" ];
359 -> 360
361 [ label="AssignStatement" ];
341 -> 361
362 [ label="Token\noldbunnies" ];
361 -> 362
363 [ label="IdExp" ];
361 -> 363
364 [ label="Token\ntempbunnies" ];
363 -> 364
365 [ label="PrintStatement" ];
341 -> 365
366 [ label="IdExp" ];
365 -> 366
367 [ label="Token\nbunnies" ];
366 -> 367
368 [ label="AssignStatement" ];
341 -> 368
369 [ label="Token\ntempbunnies" ];
368 -> 369
370 [ label="IdExp" ];
368 -> 370
371 [ label="Token\nbunnies" ];
370 -> 371
372 [ label="AssignStatement" ];
341 -> 372
373 [ label="Token\nbunnies" ];
372 -> 373
374 [ label="PlusExp" ];
372 -> 374
375 [ label="IdExp" ];
374 -> 375
376 [ label="Token\nbunnies" ];
375 -> 376
377 [ label="IdExp" ];
374 -> 377
378 [ label="Token\noldbunnies" ];
377 -> 378
379 [ label="AssignStatement" ];
341 -> 379
380 [ label="Token\noldbunnies" ];
379 -> 380
381 [ label="IdExp" ];
379 -> 381
382 [ label="Token\ntempbunnies" ];
381 -> 382
383 [ label="PrintStatement" ];
341 -> 383
384 [ label="IdExp" ];
383 -> 384
385 [ label="Token\nbunnies" ];
384 -> 385
386 [ label="AssignStatement" ];
341 -> 386
387 [ label="Token\ntempbunnies" ];
386 -> 387
388 [ label="IdExp" ];
386 -> 388
389 [ label="Token\nbunnies" ];
388 -> 389
390 [ label="AssignStatement" ];
341 -> 390
391 [ label="Token\nbunnies" ];
390 -> 391
392 [ label="PlusExp" ];
390 -> 392
393 [ label="IdExp" ];
392 -> 393
394 [ label="Token\nbunnies" ];
393 -> 394
395 [ label="IdExp" ];
392 -> 395
396 [ label="Token\noldbunnies" ];
395 -> 396
397 [ label="AssignStatement" ];
341 -> 397
398 [ label="Token\noldbunnies" ];
397 -> 398
399 [ label="IdExp" ];
397 -> 399
400 [ label="Token\ntempbunnies" ];
399 -> 400
401 [ label="PrintStatement" ];
341 -> 401
402 [ label="IdExp" ];
401 -> 402
403 [ label="Token\nbunnies" ];
402 -> 403
404 [ label="AssignStatement" ];
341 -> 404
405 [ label="Token\ntempbunnies" ];
404 -> 405
406 [ label="IdExp" ];
404 -> 406
407 [ label="Token\nbunnies" ];
406 -> 407
408 [ label="AssignStatement" ];
341 -> 408
409 [ label="Token\nbunnies" ];
408 -> 409
410 [ label="PlusExp" ];
408 -> 410
411 [ label="IdExp" ];
410 -> 411
412 [ label="Token\nbunnies" ];
411 -> 412
413 [ label="IdExp" ];
410 -> 413
414 [ label="Token\noldbunnies" ];
413 -> 414
415 [ label="AssignStatement" ];
341 -> 415
416 [ label="Token\noldbunnies" ];
415 -> 416
417 [ label="IdExp" ];
415 -> 417
418 [ label="Token\ntempbunnies" ];
417 -> 418
419 [ label="PrintStatement" ];
341 -> 419
420 [ label="IdExp" ];
419 -> 420
421 [ label="Token\nbunnies" ];
420 -> 421
422 [ label="AssignStatement" ];
341 -> 422
423 [ label="Token\ntempbunnies" ];
422 -> 423
424 [ label="IdExp" ];
422 -> 424
425 [ label="Token\nbunnies" ];
424 -> 425
426 [ label="AssignStatement" ];
341 -> 426
427 [ label="Token\nbunnies" ];
426 -> 427
428 [ label="PlusExp" ];
426 -> 428
429 [ label="IdExp" ];
428 -> 429
430 [ label="Token\nbunnies" ];
429 -> 430
431 [ label="IdExp" ];
428 -> 431
432 [ label="Token\noldbunnies" ];
431 -> 432
433 [ label="AssignStatement" ];
341 -> 433
434 [ label="Token\noldbunnies" ];
433 -> 434
435 [ label="IdExp" ];
433 -> 435
436 [ label="Token\ntempbunnies" ];
435 -> 436
437 [ label="PrintStatement" ];
341 -> 437
438 [ label="IdExp" ];
437 -> 438
439 [ label="Token\nbunnies" ];
438 -> 439
440 [ label="AssignStatement" ];
341 -> 440
441 [ label="Token\ntempbunnies" ];
440 -> 441
442 [ label="IdExp" ];
440 -> 442
443 [ label="Token\nbunnies" ];
442 -> 443
444 [ label="AssignStatement" ];
341 -> 444
445 [ label="Token\nbunnies" ];
444 -> 445
446 [ label="PlusExp" ];
444 -> 446
447 [ label="IdExp" ];
446 -> 447
448 [ label="Token\nbunnies" ];
447 -> 448
449 [ label="IdExp" ];
446 -> 449
450 [ label="Token\noldbunnies" ];
449 -> 450
451 [ label="AssignStatement" ];
341 -> 451
452 [ label="Token\noldbunnies" ];
451 -> 452
453 [ label="IdExp" ];
451 -> 453
454 [ label="Token\ntempbunnies" ];
453 -> 454
455 [ label="PrintStatement" ];
341 -> 455
456 [ label="IdExp" ];
455 -> 456
457 [ label="Token\nbunnies" ];
456 -> 457
458 [ label="AssignStatement" ];
341 -> 458
459 [ label="Token\ntempbunnies" ];
458 -> 459
460 [ label="IdExp" ];
458 -> 460
461 [ label="Token\nbunnies" ];
460 -> 461
462 [ label="AssignStatement" ];
341 -> 462
463 [ label="Token\nbunnies" ];
462 -> 463
464 [ label="PlusExp" ];
462 -> 464
465 [ label="IdExp" ];
464 -> 465
466 [ label="Token\nbunnies" ];
465 -> 466
467 [ label="IdExp" ];
464 -> 467
468 [ label="Token\noldbunnies" ];
467 -> 468
469 [ label="AssignStatement" ];
341 -> 469
470 [ label="Token\noldbunnies" ];
469 -> 470
471 [ label="IdExp" ];
469 -> 471
472 [ label="Token\ntempbunnies" ];
471 -> 472
473 [ label="PrintStatement" ];
341 -> 473
474 [ label="IdExp" ];
473 -> 474
475 [ label="Token\nbunnies" ];
474 -> 475
476 [ label="AssignStatement" ];
341 -> 476
477 [ label="Token\ntempbunnies" ];
476 -> 477
478 [ label="IdExp" ];
476 -> 478
479 [ label="Token\nbunnies" ];
478 -> 479
480 [ label="AssignStatement" ];
341 -> 480
481 [ label="Token\nbunnies" ];
480 -> 481
482 [ label="PlusExp" ];
480 -> 482
483 [ label="IdExp" ];
482 -> 483
484 [ label="Token\nbunnies" ];
483 -> 484
485 [ label="IdExp" ];
482 -> 485
486 [ label="Token\noldbunnies" ];
485 -> 486
487 [ label="AssignStatement" ];
341 -> 487
488 [ label="Token\noldbunnies" ];
487 -> 488
489 [ label="IdExp" ];
487 -> 489
490 [ label="Token\ntempbunnies" ];
489 -> 490
491 [ label="PrintStatement" ];
341 -> 491
492 [ label="IdExp" ];
491 -> 492
493 [ label="Token\nbunnies" ];
492 -> 493
}
