digraph ASTGraph {
0 [ label="PrintStatement" ];
1 [ label="MinusExp" ];
0 -> 1
2 [ label="IntegerExp" ];
1 -> 2
3 [ label="Token\n8" ];
2 -> 3
4 [ label="IntegerExp" ];
1 -> 4
5 [ label="Token\n5" ];
4 -> 5
}
