------------------------------------------------------------------------
r37 | gagliard | 2010-02-27 11:25:26 -0700 (Sat, 27 Feb 2010) | 1 line

fixed expected file name
------------------------------------------------------------------------
r35 | kelley | 2010-02-27 11:17:22 -0700 (Sat, 27 Feb 2010) | 2 lines

Took out all the deprecated stuff (DataInputStream) and replaced it with BufferedInputStreams.

------------------------------------------------------------------------
r34 | kelley | 2010-02-27 11:09:57 -0700 (Sat, 27 Feb 2010) | 2 lines

Finished it up. Finally!

------------------------------------------------------------------------
r33 | gagliard | 2010-02-27 11:04:30 -0700 (Sat, 27 Feb 2010) | 1 line

added class which runs both of our abstract testing classes.. needs to implement diff() method eventually
------------------------------------------------------------------------
r32 | gagliard | 2010-02-27 11:03:50 -0700 (Sat, 27 Feb 2010) | 1 line

updated to delete file at all times.. also fixed several bugs in this class
------------------------------------------------------------------------
r31 | kelley | 2010-02-27 10:41:52 -0700 (Sat, 27 Feb 2010) | 2 lines

Running everything as a process now to simulate the real users.

------------------------------------------------------------------------
r30 | kelley | 2010-02-27 10:27:16 -0700 (Sat, 27 Feb 2010) | 2 lines

Deleting directory. Frickin' ExprEvalDriver was a pain in the butt.

------------------------------------------------------------------------
r29 | gagliard | 2010-02-27 10:26:30 -0700 (Sat, 27 Feb 2010) | 1 line

moved tester classes to src directory
------------------------------------------------------------------------
r28 | kelley | 2010-02-27 10:26:19 -0700 (Sat, 27 Feb 2010) | 2 lines

Moving these babies to a lower directory

------------------------------------------------------------------------
r27 | gagliard | 2010-02-27 10:17:49 -0700 (Sat, 27 Feb 2010) | 1 line

added correct package names to files
------------------------------------------------------------------------
r26 | gagliard | 2010-02-27 10:13:12 -0700 (Sat, 27 Feb 2010) | 1 line

classes added that represent the bottom half of our testing package. they create the expected output of an expression writing to a file
------------------------------------------------------------------------
r25 | kelley | 2010-02-27 09:30:34 -0700 (Sat, 27 Feb 2010) | 2 lines

Changed the input_file to be protected.

------------------------------------------------------------------------
r24 | kelley | 2010-02-27 09:29:41 -0700 (Sat, 27 Feb 2010) | 2 lines

Changing CompilerTester to an abstract class

------------------------------------------------------------------------
r23 | kelley | 2010-02-27 09:28:46 -0700 (Sat, 27 Feb 2010) | 2 lines

Created an abstract class for testing a compiler

------------------------------------------------------------------------
r22 | kelley | 2010-02-27 09:19:40 -0700 (Sat, 27 Feb 2010) | 2 lines

Created an empty file for testing the compiler

------------------------------------------------------------------------
r21 | kelley | 2010-02-27 09:18:53 -0700 (Sat, 27 Feb 2010) | 2 lines

Created a directory for test drivers

------------------------------------------------------------------------
r20 | kelley | 2010-02-26 09:51:19 -0700 (Fri, 26 Feb 2010) | 4 lines

Fixed up a bug with registers (some were missing their $)
Created automagic sucker of MIPS code
Created backup for print_int (in case of filesystem errors)

------------------------------------------------------------------------
r19 | kelley | 2010-02-25 12:18:22 -0700 (Thu, 25 Feb 2010) | 4 lines

MIPS code generation now works.

Had to put in quite a few flushes.

------------------------------------------------------------------------
r18 | kelley | 2010-02-25 11:28:40 -0700 (Thu, 25 Feb 2010) | 2 lines

Created the first draft of the MIPS generating visitor.

------------------------------------------------------------------------
r15 | dvnewman | 2010-02-24 14:37:18 -0700 (Wed, 24 Feb 2010) | 1 line

Corrected output strings to be more technically correct.
------------------------------------------------------------------------
r12 | dvnewman | 2010-02-24 14:13:26 -0700 (Wed, 24 Feb 2010) | 1 line

finishing up Hw3 material
------------------------------------------------------------------------
r11 | dvnewman | 2010-02-24 10:05:51 -0700 (Wed, 24 Feb 2010) | 1 line

Created basic files for HW3
------------------------------------------------------------------------
r9 | gagliard | 2010-02-23 18:12:16 -0700 (Tue, 23 Feb 2010) | 1 line

Made EvalVisitor correctly find answer
------------------------------------------------------------------------
r8 | kelley | 2010-02-23 12:10:24 -0700 (Tue, 23 Feb 2010) | 5 lines

Modified ExprEvalDriver to include the last step which does evaluation.

Created EvalVisitor. It is currently a simple copy of DotVisitor

Fixed the type issues in the cup files.
------------------------------------------------------------------------
r7 | kelley | 2010-02-23 11:27:36 -0700 (Tue, 23 Feb 2010) | 1 line

Parsing the integer properly now in the cup file!
------------------------------------------------------------------------
r6 | kelley | 2010-02-23 11:25:11 -0700 (Tue, 23 Feb 2010) | 1 line

Uncommented out the printing of the value from the parser
------------------------------------------------------------------------
r5 | kelley | 2010-02-23 11:24:09 -0700 (Tue, 23 Feb 2010) | 3 lines

Fixed a missing + symbol from a string concatenation
Uncommented the AST stuff

------------------------------------------------------------------------
r4 | kelley | 2010-02-23 11:04:47 -0700 (Tue, 23 Feb 2010) | 2 lines

Added expr_ast.cup

------------------------------------------------------------------------
r3 | kelley | 2010-02-19 10:01:29 -0700 (Fri, 19 Feb 2010) | 2 lines

Filled all the cups. No more half full.

------------------------------------------------------------------------
r2 | kelley | 2010-02-18 11:38:03 -0700 (Thu, 18 Feb 2010) | 5 lines

Dave and I created the initial lex and cup to at least generate Yylex.java.

Testing and creation of expr_ast.cup to come.


------------------------------------------------------------------------
r1 | dvnewman | 2010-02-16 20:05:10 -0700 (Tue, 16 Feb 2010) | 1 line

Initial Import
------------------------------------------------------------------------
Path: .
URL: svn+ssh://kelley@rutabaga.cs.colostate.edu/s/bach/a/class/cs453/cs453h/SVN_Repository/PA3/MJExprStart/src
Repository Root: svn+ssh://kelley@rutabaga.cs.colostate.edu/s/bach/a/class/cs453/cs453h/SVN_Repository/PA3
Repository UUID: f8b2c709-f199-4bc3-a1e4-647d0465ca06
Revision: 44
Node Kind: directory
Schedule: normal
Last Changed Author: gagliard
Last Changed Rev: 37
Last Changed Date: 2010-02-27 11:25:26 -0700 (Sat, 27 Feb 2010)

/
 lexerTests/
  valid/
   face.eo
   blank.svg
   blank.eo
   face.svg
 make_svn_text.bash
 test1-cs453h.svg
 junkCases/
  test1.svg
 test2-cs453h.svg
 src/
  lexer/
   Lexer.java
   Num.java
   Token.java
   Word.java
   Color.java
  systemTest.bash
  exceptions/
   InternalException.java.bak
   ParseException.java
   InternalException.java
  tester/
   LexerTester.java
   JustReporter.java
   OutAndRunComparer.java
  driver/
   BiggerMiniSVG.java
   MiniSVG.java
  parser/
   Parser.java
  util/
   SVGColors.java
   IReportSVG.java
   IDrawSVG.java
   MiniSVGCanvas.java
   SVGDrawReport.java
 README
 subversion.txt
 TestCases/
  invalid_comments1.svg.out
  invalid_comments2.svg.out
  invalid_comments3.svg.out
  nonLetterOrDigitInQuotes.svg
  empty2.svg.out
  all1line_2.svg.out
  circle_invalid_character.svg.out
  empty.svg
  circle_invalid_radius_attribute.svg
  circle_radius_swap.svg
  myArt.svg.out
  badEnding2.svg.out
  face.svg.out
  multilineelem.svg
  temp/
   nonLetterOrDigitInQuotes.svg
   multilineelem.svg
   test2-cs453h.svg
   commentedElemList.svg
   invalid_comments1.svg
   myArt.svg
   invalid_comments2.svg
   invalid_comments3.svg
  all1line.svg.out
  min-grammar.svg
  test2-cs453h.svg
  svg_start_end.svg.out
  commentedElemList.svg
  line_invalid_number.svg.out
  invalid_comments1.svg
  test1-cs453h.svg.out
  invalid_comments2.svg
  invalid1.svg.out
  invalid_comments3.svg
  invalid2.svg.out
  flag.svg.out
  invalid3.svg.out
  empty2.svg
  rect_expected_char.svg.out
  badEnding.svg.out
  all1line_2.svg
  circle_invalid_character.svg
  nonLetterOrDigitInQuotes.svg.out
  myArt.svg
  badEnding2.svg
  face.svg
  all1line.svg
  svg_start_end.svg
  empty.svg.out
  line_invalid_number.svg
  invalid1.svg
  circle_invalid_radius_attribute.svg.out
  test1-cs453h.svg
  invalid2.svg
  circle_radius_swap.svg.out
  invalid3.svg
  flag.svg
  badEnding.svg
  multilineelem.svg.out
  rect_expected_char.svg
  min-grammar.svg.out
  test2-cs453h.svg.out
  commentedElemList.svg.out
